{
    "editor": [
        {
            "icon": "",
            "key": "content_settings",
            "header": "Content Settings",
            "disabled": false,
            "fields": [
                {
                    "key": "app_title",
                    "type": "text",
                    "header": "App Title"
                },
                {
                    "key": "color",
                    "type": "color",
                    "header": "background colour"
                },
                {
                    "key": "cards",
                    "type": "array",
                    "header": "Cards",
                    "fields": [
                        {
                            "key": "card1",
                            "type": "array",
                            "header": "Card 1",
                            "fields": [
                                {
                                    "key": "card_image",
                                    "type": "image",
                                    "header": "Card1 Image"
                                },
                                {
                                    "key": "card_title",
                                    "type": "text",
                                    "header": "Card1 Title"
                                },
                                {
                                    "key": "card_description",
                                    "type": "text",
                                    "header": "Card1 Description"
                                }
                            ]
                        },
                        {
                            "key": "card2",
                            "type": "array",
                            "header": "Card 2",
                            "fields": [
                                {
                                    "key": "card_image",
                                    "type": "image",
                                    "header": "Card2 Image"
                                },
                                {
                                    "key": "card_title",
                                    "type": "text",
                                    "header": "Card2 Title"
                                },
                                {
                                    "key": "card_description",
                                    "type": "text",
                                    "header": "Card2 Description"
                                }
                            ]
                        },
                        {
                            "key": "card3",
                            "type": "array",
                            "header": "Card 3",
                            "fields": [
                                {
                                    "key": "card_image",
                                    "type": "image",
                                    "header": "Card3 Image"
                                },
                                {
                                    "key": "card_title",
                                    "type": "text",
                                    "header": "Card3 Title"
                                },
                                {
                                    "key": "card_description",
                                    "type": "text",
                                    "header": "Card3 Description"
                                }
                            ]
                        },
                        {
                            "key": "card4",
                            "type": "array",
                            "header": "Card 4",
                            "fields": [
                                {
                                    "key": "card_image",
                                    "type": "image",
                                    "header": "Card4 Image"
                                },
                                {
                                    "key": "card_title",
                                    "type": "text",
                                    "header": "Card4 Title"
                                },
                                {
                                    "key": "card_description",
                                    "type": "text",
                                    "header": "Card4 Description"
                                }
                            ]
                        },
                        {
                            "key": "card5",
                            "type": "array",
                            "header": "Card 5",
                            "fields": [
                                {
                                    "key": "card_image",
                                    "type": "image",
                                    "header": "Card5 Image"
                                },
                                {
                                    "key": "card_title",
                                    "type": "text",
                                    "header": "Card5 Title"
                                },
                                {
                                    "key": "card_description",
                                    "type": "text",
                                    "header": "Card5 Description"
                                }
                            ]
                        }
                    ]
                }
            ]
        }
    ],
    "config": {
        "content_settings": {
            "app_title": "My Swipe",
            "color": "#d1b5a8",
            "cards": {
                "card1": {
                    "card_image": "https://frontend.apps.playcent.com/e7b7013ac8bb47cb839acf77eec676cd/assets/Background.png",
                    "card_title": "Uchiha Itachi",
                    "card_description": "Even the strongest of opponents always has a weakness."
                },
                "card2": {
                    "card_image": "https://frontend.apps.playcent.com/swipe/assets/936108.png",
                    "card_title": "Uchiha Madara",
                    "card_description": "When a man learns to love, he must bear the risk of hatred."
                },
                "card3": {
                    "card_image": "https://frontend.apps.playcent.com/swipe/assets/487192.png",
                    "card_title": "Uzumaki Naruto",
                    "card_description": "I'm not gonna run away, I never go back on my word."
                },
                "card4": {
                    "card_image": "https://frontend.apps.playcent.com/swipe/assets/508284.jpg",
                    "card_title": "Pain",
                    "card_description": "Sometimes you must hurt in order to know, fall in order to grow, lose in order to gain because life's greatest lessons are learned through pain."
                },
                "card5": {
                    "card_image": "https://frontend.apps.playcent.com/swipe/assets/605597.jpg",
                    "card_title": "Uchiha Obito",
                    "card_description": "No one cared who I was until I put on a mask."
                }
            }
        }
    }
}